project/m2/sim/waveform.vcd
$date
	Sat May  2 15:30:12 2026
$end
$version
	Icarus Verilog
$end
$timescale
	1ps
$end
$scope module tb_compute_core $end
$var wire 128 ! y_flat [127:0] $end
$var wire 1 " valid $end
$var parameter 32 # ACC_W $end
$var parameter 32 $ N_IN $end
$var parameter 32 % N_OUT $end
$var parameter 32 & X_W $end
$var reg 1 ' clk $end
$var reg 1 ( rst_n $end
$var reg 1 ) start $end
$var reg 3 * w_col [2:0] $end
$var reg 2 + w_din [1:0] $end
$var reg 2 , w_row [1:0] $end
$var reg 1 - w_wr_en $end
$var reg 128 . x_flat [127:0] $end
$var reg 32 / y_got [31:0] $end
$var integer 32 0 c [31:0] $end
$var integer 32 1 fail_cnt [31:0] $end
$var integer 32 2 r [31:0] $end
$scope module dut $end
$var wire 1 ' clk $end
$var wire 1 ( rst_n $end
$var wire 1 ) start $end
$var wire 3 3 w_col [2:0] $end
$var wire 2 4 w_din [1:0] $end
$var wire 2 5 w_row [1:0] $end
$var wire 1 - w_wr_en $end
$var wire 128 6 x_flat [127:0] $end
$var wire 128 7 y_flat [127:0] $end
$var wire 32 8 xi_ext [31:0] $end
$var parameter 32 9 ACC_W $end
$var parameter 2 : BUSY $end
$var parameter 2 ; DONE $end
$var parameter 2 < IDLE $end
$var parameter 32 = N_IN $end
$var parameter 32 > N_OUT $end
$var parameter 32 ? X_W $end
$var reg 3 @ col_cnt [2:0] $end
$var reg 2 A state [1:0] $end
$var reg 1 " valid $end
$var integer 32 B j [31:0] $end
$scope begin g_pack[0] $end
$var parameter 2 C go $end
$upscope $end
$scope begin g_pack[1] $end
$var parameter 2 D go $end
$upscope $end
$scope begin g_pack[2] $end
$var parameter 3 E go $end
$upscope $end
$scope begin g_pack[3] $end
$var parameter 3 F go $end
$upscope $end
$scope begin g_unpack[0] $end
$var parameter 2 G gi $end
$upscope $end
$scope begin g_unpack[1] $end
$var parameter 2 H gi $end
$upscope $end
$scope begin g_unpack[2] $end
$var parameter 3 I gi $end
$upscope $end
$scope begin g_unpack[3] $end
$var parameter 3 J gi $end
$upscope $end
$scope begin g_unpack[4] $end
$var parameter 4 K gi $end
$upscope $end
$scope begin g_unpack[5] $end
$var parameter 4 L gi $end
$upscope $end
$scope begin g_unpack[6] $end
$var parameter 4 M gi $end
$upscope $end
$scope begin g_unpack[7] $end
$var parameter 4 N gi $end
$upscope $end
$upscope $end
$upscope $end
$enddefinitions $end
$comment Show the parameter values. $end
$dumpall
b111 N
b110 M
b101 L
b100 K
b11 J
b10 I
b1 H
b0 G
b11 F
b10 E
b1 D
b0 C
b10000 ?
b100 >
b1000 =
b0 <
b10 ;
b1 :
b100000 9
b10000 &
b100 %
b1000 $
b100000 #
$end
#0
$dumpvars
bx B
bx A
bx @
bx 8
bx 7
b0 6
b0 5
b0 4
b0 3
bx 2
bx 1
bx 0
bx /
b0 .
0-
b0 ,
b0 +
b0 *
0)
0(
0'
x"
bx !
$end
#5000
b0 8
b0 !
b0 7
0"
b0 @
b0 A
b100 B
1'
#10000
0'
#15000
b100 B
1'
#20000
0'
#25000
b100 B
1'
#30000
1(
0'
#35000
1'
#40000
b0 0
b0 2
0'
#45000
1'
#50000
b1 0
b1 +
b1 4
1-
0'
#55000
1'
#60000
b10 0
b11 +
b11 4
b1 *
b1 3
0'
#65000
1'
#70000
b11 0
b1 +
b1 4
b10 *
b10 3
0'
#75000
1'
#80000
b100 0
b0 +
b0 4
b11 *
b11 3
0'
#85000
1'
#90000
b101 0
b1 +
b1 4
b100 *
b100 3
0'
#95000
1'
#100000
b110 0
b11 +
b11 4
b101 *
b101 3
0'
#105000
1'
#110000
b111 0
b0 +
b0 4
b110 *
b110 3
0'
#115000
1'
#120000
b1 2
b0 0
b1 +
b1 4
b111 *
b111 3
0'
#125000
1'
#130000
b1 0
b0 +
b0 4
b0 *
b0 3
b1 ,
b1 5
0'
#135000
1'
#140000
b10 0
b1 +
b1 4
b1 *
b1 3
0'
#145000
1'
#150000
b11 0
b0 +
b0 4
b10 *
b10 3
0'
#155000
1'
#160000
b100 0
b1 +
b1 4
b11 *
b11 3
0'
#165000
1'
#170000
b101 0
b11 +
b11 4
b100 *
b100 3
0'
#175000
1'
#180000
b110 0
b1 +
b1 4
b101 *
b101 3
0'
#185000
1'
#190000
b111 0
b110 *
b110 3
0'
#195000
1'
#200000
b10 2
b0 0
b0 +
b0 4
b111 *
b111 3
0'
#205000
1'
#210000
b1 0
b11 +
b11 4
b0 *
b0 3
b10 ,
b10 5
0'
#215000
1'
#220000
b10 0
b0 +
b0 4
b1 *
b1 3
0'
#225000
1'
#230000
b11 0
b11 +
b11 4
b10 *
b10 3
0'
#235000
1'
#240000
b100 0
b1 +
b1 4
b11 *
b11 3
0'
#245000
1'
#250000
b101 0
b0 +
b0 4
b100 *
b100 3
0'
#255000
1'
#260000
b110 0
b1 +
b1 4
b101 *
b101 3
0'
#265000
1'
#270000
b111 0
b11 +
b11 4
b110 *
b110 3
0'
#275000
1'
#280000
b11 2
b0 0
b1 +
b1 4
b111 *
b111 3
0'
#285000
1'
#290000
b1 0
b0 *
b0 3
b11 ,
b11 5
0'
#295000
1'
#300000
b10 0
b1 *
b1 3
0'
#305000
1'
#310000
b11 0
b0 +
b0 4
b10 *
b10 3
0'
#315000
1'
#320000
b100 0
b11 +
b11 4
b11 *
b11 3
0'
#325000
1'
#330000
b101 0
b1 +
b1 4
b100 *
b100 3
0'
#335000
1'
#340000
b110 0
b0 +
b0 4
b101 *
b101 3
0'
#345000
1'
#350000
b111 0
b1 +
b1 4
b110 *
b110 3
0'
#355000
1'
#360000
b100 2
b1000 0
b11 +
b11 4
b111 *
b111 3
0'
#365000
1'
#370000
0-
0'
#375000
1'
#380000
b1010 8
b1000000000000000000000000000000100011111111111111100000000000000111000000000000001111111111111110110000000000001010 .
b1000000000000000000000000000000100011111111111111100000000000000111000000000000001111111111111110110000000000001010 6
b1000 0
0'
#385000
1'
#390000
1)
0'
#395000
b1 A
b100 B
1'
#400000
0)
0'
#405000
b11111111111111111111111111111011 8
b1010111111111111111111111111111101100000000000000000000000000000000000000000000000000000000000001010 !
b1010111111111111111111111111111101100000000000000000000000000000000000000000000000000000000000001010 7
b1 @
b100 B
1'
#410000
0'
#415000
b11 8
b101111111111111111111111111111101101111111111111111111111111111101100000000000000000000000000001111 !
b101111111111111111111111111111101101111111111111111111111111111101100000000000000000000000000001111 7
b10 @
b100 B
1'
#420000
0'
#425000
b111 8
b101111111111111111111111111111100111111111111111111111111111111101100000000000000000000000000010010 !
b101111111111111111111111111111100111111111111111111111111111111101100000000000000000000000000010010 7
b11 @
b100 B
1'
#430000
0'
#435000
b11111111111111111111111111111110 8
b11111111111111111111111111111110111111111111111111111111111110100000000000000000000000000000001000000000000000000000000000010010 !
b11111111111111111111111111111110111111111111111111111111111110100000000000000000000000000000001000000000000000000000000000010010 7
b100 @
b100 B
1'
#440000
0'
#445000
b1000 8
b11111111111111111111111111111100111111111111111111111111111110100000000000000000000000000000010000000000000000000000000000010000 !
b11111111111111111111111111111100111111111111111111111111111110100000000000000000000000000000010000000000000000000000000000010000 7
b101 @
b100 B
1'
#450000
0'
#455000
b0 8
b11111111111111111111111111111100000000000000000000000000000000100000000000000000000000000000110000000000000000000000000000001000 !
b11111111111111111111111111111100000000000000000000000000000000100000000000000000000000000000110000000000000000000000000000001000 7
b110 @
b100 B
1'
#460000
0'
#465000
b100 8
b111 @
b100 B
1'
#470000
0'
#475000
b11111111111111111111111111111000000000000000000000000000000001100000000000000000000000000000110000000000000000000000000000001100 !
b11111111111111111111111111111000000000000000000000000000000001100000000000000000000000000000110000000000000000000000000000001100 7
b10 A
b100 B
1'
#480000
0'
#485000
b0 A
1"
1'
#490000
b11111111111111111111111111111000 /
b100 2
b0 1
0'
#495000
0"
1'
